/Users/mohamed/Downloads/SpringBoot-S3Poc/SpringBoot-S3Poc/src/main/java/com/org/tech/s3poc/controller/BucketController.java
/Users/mohamed/Downloads/SpringBoot-S3Poc/SpringBoot-S3Poc/src/main/java/com/org/tech/s3poc/serviceimpl/AmazonClient.java
/Users/mohamed/Downloads/SpringBoot-S3Poc/SpringBoot-S3Poc/src/main/java/com/org/tech/s3poc/AppStart.java
